{
    "port": "3003",
    "mongodb": {
        "host": "localhost",
        "port": "27017",
        "database": "shamelinccom",
        "username": "Shamelinc2018",
        "password": "ShAMelINc@2K18"
    },
    "settings": {
        "wallet": {
            "amount": {
                "minimum": "10",
                "maximum": "1000",
                "welcome": "50"
            },
            "status": "1"
        },
        "site_title": "Shamel",
        "site_url": "http://localhost:3003",
        "location": "Chennai Theni Hwy, Ganapathipuram, Tambaram, Chennai, Tamil Nadu, India",
        "siteaddress": "D.84, Block No.3, 4th Floor, Murugesa Nayakar Complex, Greams Rd, Thousand Lights, Chennai, Tamil Nadu 600006",
        "email_address": "info@shamelinc.com",
        "admin_commission": "10",
        "minimum_amount": "300",
        "service_tax": "0",
        "billingcycle": "6",
        "accepttime": "10",
        "minaccepttime": "7",
        "distanceby": "mi",
        "bookingIdPrefix": "HFA",
        "time_zone": "Asia/Calcutta",
        "date_format": "DD/MM/YYYY",
        "time_format": "hh:mm a",
        "pay_by_cash": {
            "status": "1"
        },
        "referral": {
            "status": "1",
            "amount": {
                "referral": "5000",
                "referrer": "35"
            }
        },
        "categorycommission": {
            "status": "1"
        },
        "logo": "uploads/images/others/1540962036696.png",
        "light_logo": "uploads/images/others/1540962036698.png",
        "favicon": "uploads/images/others/1522324078958.png"
    }
}