{"_id":{"$oid":"5ad7dc00d63b61580865b6a5"},"updatedAt":{"$date":"2018-04-19T00:00:00.425Z"},"createdAt":{"$date":"2018-04-19T00:00:00.425Z"},"billingcycyle":"2018/04/13-2018/04/19","status":1,"end_date":{"$date":"2018-04-19T00:00:00.000Z"},"start_date":{"$date":"2018-04-13T00:00:00.000Z"}}
{"_id":{"$oid":"5adfc500e9f73c1a84166744"},"updatedAt":{"$date":"2018-04-25T00:00:00.774Z"},"createdAt":{"$date":"2018-04-25T00:00:00.774Z"},"billingcycyle":"2018/04/19-2018/04/25","status":1,"end_date":{"$date":"2018-04-25T00:00:00.000Z"},"start_date":{"$date":"2018-04-19T00:00:00.000Z"}}
{"_id":{"$oid":"5ae7ae00ea164f07ee791606"},"updatedAt":{"$date":"2018-05-01T00:00:00.716Z"},"createdAt":{"$date":"2018-05-01T00:00:00.716Z"},"billingcycyle":"2018/04/25-2018/05/01","status":1,"end_date":{"$date":"2018-05-01T00:00:00.000Z"},"start_date":{"$date":"2018-04-25T00:00:00.000Z"}}
{"_id":{"$oid":"5aef9700bfbf1c5d13a46656"},"updatedAt":{"$date":"2018-05-07T00:00:00.071Z"},"createdAt":{"$date":"2018-05-07T00:00:00.071Z"},"billingcycyle":"2018/05/01-2018/05/07","status":1,"end_date":{"$date":"2018-05-07T00:00:00.000Z"},"start_date":{"$date":"2018-05-01T00:00:00.000Z"}}
{"_id":{"$oid":"5af78000937b493be6e9bc0e"},"updatedAt":{"$date":"2018-05-13T00:00:00.328Z"},"createdAt":{"$date":"2018-05-13T00:00:00.328Z"},"billingcycyle":"2018/05/07-2018/05/13","status":1,"end_date":{"$date":"2018-05-13T00:00:00.000Z"},"start_date":{"$date":"2018-05-07T00:00:00.000Z"}}
{"_id":{"$oid":"5aff690022e5703ce062a81f"},"updatedAt":{"$date":"2018-05-19T00:00:00.686Z"},"createdAt":{"$date":"2018-05-19T00:00:00.686Z"},"billingcycyle":"2018/05/13-2018/05/19","status":1,"end_date":{"$date":"2018-05-19T00:00:00.000Z"},"start_date":{"$date":"2018-05-13T00:00:00.000Z"}}
