{"_id":{"$oid":"57342f8713508f5418a79dc2"},"updatedAt":{"$date":"2017-09-05T13:34:07.259Z"},"createdAt":{"$date":"2016-05-12T07:23:51.558Z"},"question":"What is a Handy for all?","answer":"Handy for all is an online and mobile marketplace that allows users to outsource small jobs and tasks to others in their neighborhood. Users name the task they need done, name the price they are willing to pay, and a network of pre-approved contractors bid to complete the job.","status":1}
{"_id":{"$oid":"5760e932f5bae1940a25c198"},"updatedAt":{"$date":"2017-01-09T09:14:06.870Z"},"createdAt":{"$date":"2016-06-15T05:35:46.071Z"},"question":"How to edit the vehicle availability of a tasker ?","answer":"To edit the vehicle availability of a tasker visit the site homepage and click on the login button. Enter valid credentials and click on the login button. After successful login click on the my account dropdown and click on account. In the tasker account page click on Vehicle. In vehicle management tick or untick the vehicle check boxes as per your requirements and click on the the save button. After the changes are successfully saved a popup message will be shown to the user.","status":0}
{"_id":{"$oid":"5784bcad4f8a62c4133e4cf8"},"updatedAt":{"$date":"2016-08-05T19:20:45.453Z"},"createdAt":{"$date":"2016-07-12T09:47:25.577Z"},"question":"How to edit tasker account details ?","answer":"To edit the tasker account details visit the site homepage and click on the login button. Enter valid credentials and click on the login button. After successful login click on the my account dropdown and click on account. In the tasker account page click on the edit button. Now the tasker can edit his account details. Once the account details are edited click on the the save button. And once the details are stored successfully a popup will be shown to the user.  The tasker can also add or change his profile picture in the same edit account details page.","status":1}
{"_id":{"$oid":"5784bcd14f8a62c4133e4cf9"},"updatedAt":{"$date":"2017-03-30T05:46:29.203Z"},"createdAt":{"$date":"2016-07-12T09:48:01.219Z"},"question":"How to signup as a tasker ?","answer":"To signup as a tasker visit the site homepage and click on the signup button. In the next page click on the I want to be a tasker button the n click on the signup button. In the signup form enter the mandatory fields and click on the click here to create a new account button. In the tell us about yourself page enter the mandatory fields and click on the submit button to proceed further. In the personal Information page enter the contact number and gender details and click on the submit button. In the add your availability page choose your availability by clicking and dragging on the days you are available and then click on the submit button.    Then in the select your boundary to work page draw on the map where the tasker will be able to work and then click on submit. In the profile details page answer the questions and click on the submit button. In your vehicle options page choose your availability of vehicles and click on the submit button. In the next page upload a photo which yo","status":2}
{"_id":{"$oid":"57a4e733b0c06eac0d1a5a65"},"updatedAt":{"$date":"2017-05-05T12:59:27.775Z"},"createdAt":{"$date":"2016-08-05T19:21:23.307Z"},"question":"How to edit the availability of a tasker ?","answer":"To edit the availability of a tasker visit the site homepage and click on the login button. Enter valid credentials and click on the login button. After successful login click on the my account dropdown and click on account. In the tasker account page click on availability. In availability management the tasker can edit his availability. After clicking and dragging a pop up will show up and by clicking on the submit button his availability will be saved and a popup message will be displayed.   The tasker can also delete his availability by clicking on his availability which he added already. A pop up message will show up where by clicking on the delete button his availability can be removed. A popup message will be shown after successful deletion of availability.","status":1}
{"_id":{"$oid":"57a4e74db0c06eac0d1a5a66"},"updatedAt":{"$date":"2016-08-05T19:21:49.088Z"},"createdAt":{"$date":"2016-08-05T19:21:49.088Z"},"question":"How to deactivate a tasker account ?","answer":"To deactivate an tasker account visit the site homepage and click on the login button. After successful login click on the my account dropdown and click on account.In the tasker account details page click on deactivate, Click on the deactivate account button to deactivate your tasker account. After successful account deactivation a popup message will be shown to the tasker.","status":1}
{"_id":{"$oid":"57a4e75cb0c06eac0d1a5a67"},"updatedAt":{"$date":"2017-01-09T07:35:24.628Z"},"createdAt":{"$date":"2016-08-05T19:22:04.775Z"},"question":"How to sign up as a user ?","answer":"To sign up as a user visit the site homepage and click on the signup button. In the next page click on the i need help with task button to sign up as a user. Then again click on the signup button. In the signup form enter the mandatory fields and click on the click here to create a new account button. After successful account creation a pop up message will be displayed to the user.   The user will also get an email notification after successful account creation. The click here button in the email helps the user verify his email id. only Verified users can book a tasker. The user will also get an email notification for successful email verification.","status":2}
{"_id":{"$oid":"58733f7546c1932013258489"},"updatedAt":{"$date":"2017-01-09T07:45:08.687Z"},"createdAt":{"$date":"2017-01-09T07:44:53.865Z"},"question":"testxcv","answer":"testxcvx","status":0}
{"_id":{"$oid":"58dc9cd296e9461c0aae55ee"},"updatedAt":{"$date":"2017-03-30T05:52:10.987Z"},"createdAt":{"$date":"2017-03-30T05:51:14.918Z"},"question":"how?","answer":"do","status":0}
{"_id":{"$oid":"58dc9d2896e9461c0aae55ef"},"updatedAt":{"$date":"2017-03-30T05:55:00.339Z"},"createdAt":{"$date":"2017-03-30T05:52:40.406Z"},"question":"how to do?","answer":"do","status":0}
{"_id":{"$oid":"58dc9dc386127bf40e05bb49"},"updatedAt":{"$date":"2017-05-29T14:00:46.902Z"},"createdAt":{"$date":"2017-03-30T05:55:15.794Z"},"question":"howsdfgsdfg","answer":"gosdfgsdfgwsrtwertsdfg","status":0}
{"_id":{"$oid":"592c189ae12e6de00ecc52d6"},"updatedAt":{"$date":"2017-05-29T12:49:14.904Z"},"createdAt":{"$date":"2017-05-29T12:48:26.692Z"},"question":"check","answer":"asasasas","status":0}
{"_id":{"$oid":"592c29876dff5ce00ad2b304"},"updatedAt":{"$date":"2017-05-29T14:00:46.902Z"},"createdAt":{"$date":"2017-05-29T14:00:39.547Z"},"question":"sdfgs","answer":"gsfdgsf","status":0}
